1 Week 1 | Inferential Statistics Course Activity
…
25

100

5,000

# type your code for Question 3 here, and Run Document
dim(sample_means_small)

## [1] 25  2

sample_means_small

## # A tibble: 25 x 2
##    replicate x_bar_practice
##        <int>          <dbl>
##  1         1          1641.
##  2         2          1465.
##  3         3          1680 
##  4         4          1395.
##  5         5          1488.
##  6         6          1591.
##  7         7          1461.
##  8         8          1406.
##  9         9          1366 
## 10        10          1257.
## # ... with 15 more rows
…
