Week 1 | Inferential Statistics Course Activity
…
25

100

5,000

# type your code for Question 3 here, and Run Document
dim(sample_means_small)

## [1] 25  2

sample_means_small

## # A tibble: 25 x 2
##    replicate x_bar_practice
##        <int>          <dbl>
##  1         1          1778.
##  2         2          1485.
##  3         3          1520.
##  4         4          1395.
##  5         5          1594.
##  6         6          1328.
##  7         7          1782.
##  8         8          1550.
##  9         9          1328.
## 10        10          1514.
## # … with 15 more rows
…
